{
  "name": "High CPU Usage Alert",
  "type": "query alert",
  "query": "avg(last_5m):avg:kubernetes.cpu.usage.total{*} > 80",
  "message": "Warning: High CPU usage detected on Kubernetes cluster",
  "tags": ["environment:production"],
  "options": {
    "thresholds": {
      "critical": 80,
      "warning": 70
    },
    "notify_no_data": true,
    "no_data_timeframe": 20
  }
}
